module gitlab.com/rtemb/catosniff

go 1.13

require (
	github.com/garyburd/redigo v1.6.0
	github.com/gogo/protobuf v1.3.1
	github.com/golang/protobuf v1.3.2
	github.com/grpc-ecosystem/grpc-gateway v1.14.3
	github.com/kelseyhightower/envconfig v1.4.0
	github.com/konsorten/go-windows-terminal-sequences v1.0.2 // indirect
	github.com/kr/pretty v0.1.0 // indirect
	github.com/mwitkow/go-proto-validators v0.3.0
	github.com/pkg/errors v0.9.1
	github.com/sirupsen/logrus v1.5.0
	github.com/stretchr/testify v1.4.0
	golang.org/x/sys v0.0.0-20190922100055-0a153f010e69 // indirect
	golang.org/x/text v0.3.2 // indirect
	google.golang.org/genproto v0.0.0-20190927181202-20e1ac93f88c
	google.golang.org/grpc v1.24.0
	gopkg.in/check.v1 v1.0.0-20190902080502-41f04d3bba15 // indirect
	gopkg.in/yaml.v2 v2.2.8 // indirect
)
